<?xml version="1.0" encoding="UTF-8"?>
<svg width="18px" height="18px" viewBox="0 0 18 18" version="1.1" xmlns="http://www.w3.org/2000/svg" xmlns:xlink="http://www.w3.org/1999/xlink">
    <!-- Generator: Sketch 55.2 (78181) - https://sketchapp.com -->
    <title>Group 11</title>
    <desc>Created with Sketch.</desc>
    <defs>
        <linearGradient x1="1.6737382%" y1="0%" x2="100%" y2="113.765579%" id="linearGradient-1">
            <stop stop-color="#996C22" offset="0%"></stop>
            <stop stop-color="#F0E87B" offset="49.9778%"></stop>
            <stop stop-color="#C2A64E" offset="64.9590711%"></stop>
            <stop stop-color="#B4933E" offset="84.6453171%"></stop>
            <stop stop-color="#D1AB59" offset="100%"></stop>
        </linearGradient>
    </defs>
    <g id="Page-1" stroke="none" stroke-width="1" fill="none" fill-rule="evenodd">
        <g id="PCA-Core-UI" transform="translate(-504.000000, -5368.000000)">
            <g id="Group-11" transform="translate(504.000000, 5368.000000)">
                <g id="Group-10">
                    <circle id="Oval" fill="url(#linearGradient-1)" fill-rule="nonzero" cx="8.91000031" cy="8.91000031" r="8.91000031"></circle>
                    <g id="Call" transform="translate(4.860000, 4.860000)">
                        <polygon id="Path" points="0 0 8.10000028 0 8.10000028 8.10000028 0 8.10000028"></polygon>
                        <path d="M3.05356027,3.7513213 L4.18392006,4.94117372 C4.30646841,5.07017198 4.52842154,5.08858907 4.77568479,4.96703475 C5.40496135,4.7067845 5.61433357,4.64333839 5.73386026,4.76915596 L7.03321604,6.13689888 C7.18680952,6.29857623 7.14581914,6.56787787 6.97406443,6.7486723 C6.08221746,7.68745858 4.6326367,7.68745858 3.74078973,6.7486723 L1.31353388,4.19366614 C0.426155402,3.25958353 0.426155402,1.74840985 1.31353388,0.814327236 C1.48891316,0.629717473 1.75824163,0.584294237 1.91762136,0.75206238 L3.21697714,2.11980531 C3.32959904,2.23835467 3.26921176,2.45916139 3.02332472,3.11706194 C2.90901727,3.37387208 2.92733304,3.61845053 3.05356027,3.7513213 Z" id="Path" fill="#2E2E2E" fill-rule="nonzero"></path>
                    </g>
                </g>
            </g>
        </g>
    </g>
</svg>