<?xml version="1.0" encoding="UTF-8"?>
<svg width="19px" height="18px" viewBox="0 0 19 18" version="1.1" xmlns="http://www.w3.org/2000/svg" xmlns:xlink="http://www.w3.org/1999/xlink">
    <!-- Generator: Sketch 55.2 (78181) - https://sketchapp.com -->
    <title>Group 12</title>
    <desc>Created with Sketch.</desc>
    <defs>
        <linearGradient x1="1.6737382%" y1="0%" x2="100%" y2="113.765579%" id="linearGradient-1">
            <stop stop-color="#996C22" offset="0%"></stop>
            <stop stop-color="#F0E87B" offset="49.9778%"></stop>
            <stop stop-color="#C2A64E" offset="64.9590711%"></stop>
            <stop stop-color="#B4933E" offset="84.6453171%"></stop>
            <stop stop-color="#D1AB59" offset="100%"></stop>
        </linearGradient>
    </defs>
    <g id="Page-1" stroke="none" stroke-width="1" fill="none" fill-rule="evenodd">
        <g id="PCA-Core-UI" transform="translate(-678.000000, -5368.000000)">
            <g id="Group-12" transform="translate(678.620006, 5368.000000)">
                <g id="Group-14">
                    <circle id="Oval" fill="url(#linearGradient-1)" fill-rule="nonzero" cx="8.91000031" cy="8.91000031" r="8.91000031"></circle>
                    <path d="M8.91001372,4.75200017 C6.617336,4.75200017 4.75200017,6.61731519 4.75200017,8.91000031 C4.75200017,9.62589947 4.93696701,10.329867 5.28768415,10.951036 L4.75871593,12.8384065 C4.74136085,12.900415 4.75817358,12.966943 4.80300752,13.0130425 C4.83753689,13.0486567 4.88454022,13.0680005 4.93280902,13.0680005 C4.94727159,13.0680005 4.96191493,13.0661926 4.97619671,13.0627578 L6.94599773,12.5748255 C7.54745955,12.8977032 8.22484982,13.0680005 8.91001372,13.0680005 C11.2026915,13.0680005 13.0680005,11.2026854 13.0680005,8.91000031 C13.0680005,6.61731519 11.2026915,4.75200017 8.91001372,4.75200017 Z M11.7948069,10.2248706 C11.697392,10.4455202 11.2301173,10.6468913 11.0055879,10.673946 C10.8040262,10.6980846 10.5490051,10.7084528 10.2690363,10.636523 C10.0993523,10.5927819 9.88155477,10.5347845 9.60257596,10.43742 C8.42983536,10.0281976 7.66398012,9.07415549 7.60537279,9.0111359 C7.54696346,8.9481163 7.12800025,8.49904094 7.12800025,8.03425118 C7.12800025,7.56946142 7.4299468,7.34087364 7.53726157,7.24626324 C7.64457634,7.15165285 7.7710969,7.12800025 7.849108,7.12800025 C7.92711911,7.12800025 8.00493222,7.12881027 8.07324144,7.13140233 C8.14511462,7.13431841 8.24153952,7.10920777 8.33638043,7.29356844 C8.43379532,7.48278923 8.66763065,7.94757899 8.69653831,7.99504619 C8.72584198,8.04235138 8.74524576,8.09759478 8.7064382,8.16061438 C8.66763065,8.22363397 8.64822687,8.26300097 8.58961954,8.31824437 C8.53101221,8.37348776 8.46686094,8.44136748 8.41419354,8.48381255 C8.35558621,8.53095575 8.29480091,8.58198704 8.36291213,8.67659743 C8.43102335,8.77120783 8.66565067,9.08047365 9.01333469,9.33093199 C9.45981959,9.65267213 9.83660928,9.75246666 9.95342794,9.79977185 C10.0702466,9.84707705 10.1385558,9.83913885 10.206667,9.77611925 C10.2747783,9.71293766 10.4989117,9.50022627 10.5767248,9.40577788 C10.6545379,9.31132949 10.732549,9.32688189 10.8398638,9.35847269 C10.9471786,9.38990148 11.521966,9.61832726 11.6387847,9.66563246 C11.7556033,9.71293766 11.8336144,9.73659025 11.8629181,9.77595725 C11.8922218,9.81516224 11.8922218,10.004383 11.7948069,10.2248706 Z" id="Shape" fill="#2E2E2E"></path>
                    <g id="icons8-facebook" transform="translate(4.752000, 8.316000)"></g>
                </g>
            </g>
        </g>
    </g>
</svg>