<?xml version="1.0" encoding="UTF-8"?>
<svg width="21px" height="21px" viewBox="0 0 21 21" version="1.1" xmlns="http://www.w3.org/2000/svg" xmlns:xlink="http://www.w3.org/1999/xlink">
    <!-- Generator: Sketch 55.2 (78181) - https://sketchapp.com -->
    <title>iconspace_Home 1_25px</title>
    <desc>Created with Sketch.</desc>
    <g id="Page-1" stroke="none" stroke-width="1" fill="none" fill-rule="evenodd">
        <g id="PCA-Core-UI" transform="translate(-516.000000, -3148.000000)">
            <g id="iconspace_Home-1_25px" transform="translate(514.000000, 3146.000000)">
                <polygon id="Path" points="0 0 25 0 25 25 0 25"></polygon>
                <polygon id="Path" points="0 0 25 0 25 25 0 25"></polygon>
                <path d="M15.0089111,22 L15.0089111,18.5 C15.0089111,17.6715729 14.3373383,17 13.5089111,17 L11.5089111,17 C10.680484,17 10.0089111,17.6715729 10.0089111,18.5 L10.0089111,22 L15.0089111,22 Z M11.5089111,16 L13.5089111,16 C14.889623,16 16.0089111,17.1192881 16.0089111,18.5 L16.0089111,22.5 C16.0089111,22.7761424 15.7850535,23 15.5089111,23 L9.50891113,23 C9.23276876,23 9.00891113,22.7761424 9.00891113,22.5 L9.00891113,18.5 C9.00891113,17.1192881 10.1281993,16 11.5089111,16 Z" id="Path" fill="#DBA514" fill-rule="nonzero"></path>
                <path d="M20.0453532,9.95547908 L12.5089111,3.1726812 L4.98415712,9.94495981 C5.00022248,9.99399224 5.00891113,10.046366 5.00891113,10.100769 L5.00891113,20.5 C5.00891113,21.3284271 5.68048401,22 6.50891113,22 L18.5089111,22 C19.3373383,22 20.0089111,21.3284271 20.0089111,20.5 L20.0089111,10.100769 C20.0089111,10.0510688 20.0210585,10.0026388 20.0453532,9.95547908 L20.0453532,9.95547908 Z M21.0089068,10.8226812 L21.0089068,20.5 C21.0089068,21.8807119 19.889623,23 18.5089068,23 L6.50890683,23 C5.12819926,23 4.00890683,21.8807119 4.00890683,20.5 L4.00890683,10.8226812 L2.8433935,11.8716471 C2.63813849,12.0563766 2.32199357,12.0397374 2.13726406,11.8344824 C1.95253455,11.6292274 1.96917376,11.3130824 2.17442877,11.1283529 L12.1744288,2.12835293 C12.3645813,1.95721569 12.653241,1.95721569 12.8433935,2.12835293 L22.8433935,11.1283529 C23.0486485,11.3130824 23.0652877,11.6292274 22.8805582,11.8344824 C22.6958287,12.0397374 22.3796838,12.0563766 22.1744288,11.8716471 L21.0089068,10.8226812 Z" id="Path" fill="#DBA514" fill-rule="nonzero"></path>
            </g>
        </g>
    </g>
</svg>