<?xml version="1.0" encoding="UTF-8"?>
<svg width="17px" height="20px" viewBox="0 0 17 20" version="1.1" xmlns="http://www.w3.org/2000/svg" xmlns:xlink="http://www.w3.org/1999/xlink">
    <!-- Generator: Sketch 55.2 (78181) - https://sketchapp.com -->
    <title>iconspace_Notification_25px</title>
    <desc>Created with Sketch.</desc>
    <g id="Page-1" stroke="none" stroke-width="1" fill="none" fill-rule="evenodd">
        <g id="PCA-Core-UI" transform="translate(-661.000000, -3148.000000)">
            <g id="iconspace_Notification_25px" transform="translate(657.000000, 3146.000000)">
                <polygon id="Path" points="0 0 25 0 25 25 0 25"></polygon>
                <g id="Group" transform="translate(4.000000, 2.000000)" fill="#DBA514" fill-rule="nonzero">
                    <path d="M6,17.5324707 C6,18.8952495 7.11928813,20 8.5,20 C9.88071187,20 11,18.8952495 11,17.5324707 L11,17 L10,17 L10,17.5324707 C10,18.350138 9.32842712,19.0129883 8.5,19.0129883 C7.67157288,19.0129883 7,18.350138 7,17.5324707 L7,17 L6,17 L6,17.5324707 Z" id="Path"></path>
                    <path d="M14.0525618,14.3223082 C14.0172978,14.2524398 13.9989266,14.1752682 13.9989266,14.0970037 L13.9989266,8.84125956 C13.9989266,5.6809635 11.6600538,3 8.5,3 C5.33994624,3 2.99976998,5.6809635 2.99976998,8.84125956 L2.99976998,14.0970037 C2.99976998,14.1752682 2.98139878,14.2524398 2.94613479,14.3223082 L1.31301569,17 L15.6869843,17 L14.0525618,14.3223082 Z M8.49934827,0 C9.87326552,0 10.9883058,1.10846895 10.9990779,2.47995069 C13.4738567,3.47177789 14.9988499,6.01190561 14.9988499,8.84125956 L14.9988499,13.9779663 L16.9457131,17.2746955 C17.1135618,17.6072535 16.8718797,18 16.4993866,18 L0.500613392,18 C0.128120334,18 -0.113561823,17.6072535 0.0542869203,17.2746955 L1.99984665,13.9779663 L1.99984665,8.84125956 C1.99984665,6.01240393 3.52552767,3.47263071 5.99961461,2.48047487 C6.01010661,1.1087514 7.12525599,0 8.49934827,0 Z M8.5,2 C9.00149827,2 9.49016915,2.05492479 9.96032623,2.15908752 C9.80597756,1.49490197 9.21045376,1 8.49934827,1 C7.78813408,1 7.19253692,1.49505329 7.03829956,2.15939212 C7.5088786,2.05503187 7.9980131,2 8.5,2 Z" id="Path"></path>
                </g>
            </g>
        </g>
    </g>
</svg>