{
  "project_info": {
    "project_number": "535336240820",
    "firebase_url": "https://property-connect-alliance.firebaseio.com",
    "project_id": "property-connect-alliance",
    "storage_bucket": "property-connect-alliance.appspot.com"
  },
  "client": [
    {
      "client_info": {
        "mobilesdk_app_id": "1:535336240820:android:9bbfdea5b96d4cd7",
        "android_client_info": {
          "package_name": "com.propertyconnectalliance.sg"
        }
      },
      "oauth_client": [
        {
          "client_id": "535336240820-tcpni15407bnkoo59e79miha8vcusref.apps.googleusercontent.com",
          "client_type": 3
        }
      ],
      "api_key": [
        {
          "current_key": "AIzaSyA8AvpsYL0_zjp86nhoEN3embpfwKtqStg"
        }
      ],
      "services": {
        "appinvite_service": {
          "other_platform_oauth_client": [
            {
              "client_id": "535336240820-tcpni15407bnkoo59e79miha8vcusref.apps.googleusercontent.com",
              "client_type": 3
            },
            {
              "client_id": "535336240820-3lbahim7r4vr7v8i05smc0vel12iqsht.apps.googleusercontent.com",
              "client_type": 2,
              "ios_info": {
                "bundle_id": "com.propertyconnectalliance.sg",
                "app_store_id": "1400685329"
              }
            }
          ]
        }
      }
    },
    {
      "client_info": {
        "mobilesdk_app_id": "1:535336240820:android:b1defed88ae3676e",
        "android_client_info": {
          "package_name": "com.propertyconnectalliance_new.sg"
        }
      },
      "oauth_client": [
        {
          "client_id": "535336240820-tcpni15407bnkoo59e79miha8vcusref.apps.googleusercontent.com",
          "client_type": 3
        }
      ],
      "api_key": [
        {
          "current_key": "AIzaSyA8AvpsYL0_zjp86nhoEN3embpfwKtqStg"
        }
      ],
      "services": {
        "appinvite_service": {
          "other_platform_oauth_client": [
            {
              "client_id": "535336240820-tcpni15407bnkoo59e79miha8vcusref.apps.googleusercontent.com",
              "client_type": 3
            },
            {
              "client_id": "535336240820-3lbahim7r4vr7v8i05smc0vel12iqsht.apps.googleusercontent.com",
              "client_type": 2,
              "ios_info": {
                "bundle_id": "com.propertyconnectalliance.sg",
                "app_store_id": "1400685329"
              }
            }
          ]
        }
      }
    }
  ],
  "configuration_version": "1"
}